<?xml version="1.0" encoding="UTF-8" standalone="no"?>
<!-- Created with Inkscape (http://www.inkscape.org/) -->

<svg
   xmlns:dc="http://purl.org/dc/elements/1.1/"
   xmlns:cc="http://creativecommons.org/ns#"
   xmlns:rdf="http://www.w3.org/1999/02/22-rdf-syntax-ns#"
   xmlns:svg="http://www.w3.org/2000/svg"
   xmlns="http://www.w3.org/2000/svg"
   xmlns:xlink="http://www.w3.org/1999/xlink"
   xmlns:sodipodi="http://sodipodi.sourceforge.net/DTD/sodipodi-0.dtd"
   xmlns:inkscape="http://www.inkscape.org/namespaces/inkscape"
   id="svg3094"
   sodipodi:docname="features.svg"
   viewBox="0 0 93.562 107.801"
   version="1.1"
   inkscape:version="0.48.2 r9819"
   width="100%"
   height="100%">
  <defs
     id="defs3096">
    <radialGradient
       id="radialGradient4058"
       xlink:href="#linearGradient3054"
       gradientUnits="userSpaceOnUse"
       cy="730.16998"
       cx="316.07001"
       gradientTransform="matrix(0.59604,-0.80295,1.4623,1.0855,-940.08,189.33)"
       r="14.689"
       inkscape:collect="always" />
    <filter
       id="filter4044"
       color-interpolation-filters="sRGB"
       inkscape:collect="always">
      <feGaussianBlur
         id="feGaussianBlur4046"
         stdDeviation="1.0060264"
         inkscape:collect="always" />
    </filter>
    <radialGradient
       id="radialGradient4050"
       xlink:href="#linearGradient3054"
       gradientUnits="userSpaceOnUse"
       cy="730.16998"
       cx="316.07001"
       gradientTransform="matrix(0.39736,0.91766,-1.6713,0.72367,1492.9,-231.28)"
       r="14.689"
       inkscape:collect="always" />
    <linearGradient
       id="linearGradient3054">
      <stop
         id="stop3056"
         style="stop-color:#ffffff"
         offset="0" />
      <stop
         id="stop3058"
         style="stop-color:#ffffff;stop-opacity:0"
         offset="1" />
    </linearGradient>
    <radialGradient
       id="radialGradient4038"
       xlink:href="#linearGradient3054"
       gradientUnits="userSpaceOnUse"
       cy="730.16998"
       cx="316.07001"
       gradientTransform="matrix(0.59604,-0.80295,1.4623,1.0855,-864.11,58.978)"
       r="14.689"
       inkscape:collect="always" />
    <filter
       id="filter3991"
       inkscape:collect="always"
       color-interpolation-filters="sRGB">
      <feGaussianBlur
         id="feGaussianBlur3993"
         stdDeviation="1.1616594"
         inkscape:collect="always" />
    </filter>
    <linearGradient
       id="linearGradient4004"
       y2="628.94"
       xlink:href="#linearGradient3054"
       gradientUnits="userSpaceOnUse"
       x2="401.98999"
       gradientTransform="translate(14.593,-6.3366)"
       y1="637.79999"
       x1="417.32999"
       inkscape:collect="always" />
    <filter
       id="filter4006"
       inkscape:collect="always"
       color-interpolation-filters="sRGB">
      <feGaussianBlur
         id="feGaussianBlur4008"
         stdDeviation="0.9509691"
         inkscape:collect="always" />
    </filter>
    <filter
       id="filter4006-7"
       color-interpolation-filters="sRGB"
       inkscape:collect="always">
      <feGaussianBlur
         id="feGaussianBlur4008-3"
         stdDeviation="0.9509691"
         inkscape:collect="always" />
    </filter>
    <linearGradient
       id="linearGradient4027"
       y2="636.02002"
       xlink:href="#linearGradient3054"
       gradientUnits="userSpaceOnUse"
       y1="650.20001"
       gradientTransform="translate(48.348,-43.541)"
       x2="383.57001"
       x1="395.85001"
       inkscape:collect="always" />
    <filter
       id="filter4006-3"
       color-interpolation-filters="sRGB"
       inkscape:collect="always">
      <feGaussianBlur
         id="feGaussianBlur4008-1"
         stdDeviation="0.9509691"
         inkscape:collect="always" />
    </filter>
    <linearGradient
       id="linearGradient4067"
       y2="625.39001"
       xlink:href="#linearGradient3054"
       gradientUnits="userSpaceOnUse"
       y1="646.65002"
       gradientTransform="translate(-3.0686,-72.638)"
       x2="401.98999"
       x1="395.85001"
       inkscape:collect="always" />
    <filter
       id="filter4006-3-9"
       color-interpolation-filters="sRGB"
       inkscape:collect="always">
      <feGaussianBlur
         id="feGaussianBlur4008-1-6"
         stdDeviation="0.9509691"
         inkscape:collect="always" />
    </filter>
    <filter
       id="filter4006-7-7"
       color-interpolation-filters="sRGB"
       inkscape:collect="always">
      <feGaussianBlur
         id="feGaussianBlur4008-3-5"
         stdDeviation="0.9509691"
         inkscape:collect="always" />
    </filter>
    <linearGradient
       id="linearGradient4147"
       y2="636.02002"
       gradientUnits="userSpaceOnUse"
       y1="637.79999"
       gradientTransform="translate(-39.892,-30.118)"
       x2="389.70999"
       x1="380.51001"
       inkscape:collect="always">
      <stop
         id="stop3056-7"
         style="stop-color:#ffffff"
         offset="0" />
      <stop
         id="stop3058-8"
         style="stop-color:#ffffff;stop-opacity:0"
         offset="1" />
    </linearGradient>
    <filter
       id="filter4006-35"
       color-interpolation-filters="sRGB"
       inkscape:collect="always">
      <feGaussianBlur
         id="feGaussianBlur4008-2"
         stdDeviation="0.9509691"
         inkscape:collect="always" />
    </filter>
    <linearGradient
       id="linearGradient4187"
       y2="632.47998"
       gradientUnits="userSpaceOnUse"
       y1="623.62"
       gradientTransform="translate(-46.029,1.7717)"
       x2="408.12"
       x1="405.04999"
       inkscape:collect="always">
      <stop
         id="stop3056-6"
         style="stop-color:#ffffff"
         offset="0" />
      <stop
         id="stop3058-6"
         style="stop-color:#ffffff;stop-opacity:0"
         offset="1" />
    </linearGradient>
  </defs>
  <sodipodi:namedview
     id="base"
     bordercolor="#666666"
     inkscape:pageshadow="2"
     inkscape:window-y="25"
     fit-margin-left="0"
     pagecolor="#ffffff"
     fit-margin-top="0"
     inkscape:window-maximized="0"
     inkscape:zoom="3.0510179"
     inkscape:window-x="0"
     inkscape:window-height="756"
     showgrid="false"
     borderopacity="1.0"
     inkscape:current-layer="layer1"
     inkscape:cx="-12.295154"
     inkscape:cy="47.840563"
     fit-margin-right="0"
     fit-margin-bottom="0"
     inkscape:window-width="1261"
     inkscape:pageopacity="0.0"
     inkscape:document-units="px">
    <inkscape:grid
       id="grid3953"
       enabled="true"
       visible="true"
       snapvisiblegridlinesonly="true"
       units="mm"
       type="axonomgrid"
       empspacing="5" />
  </sodipodi:namedview>
  <g
     id="layer1"
     inkscape:label="Layer 1"
     inkscape:groupmode="layer"
     transform="translate(-351.387,-540.356)">
    <path
       id="path3766-7"
       style="fill:#ffffff;stroke:#000000;stroke-width:1px"
       inkscape:connector-curvature="0"
       d="m 367.48,611.97 30.686,17.717 V 594.254 L 367.48,576.537 z" />
    <path
       id="path3768-2"
       style="fill:#ffffff;stroke:#000000;stroke-width:1.5;stroke-linejoin:round"
       inkscape:connector-curvature="0"
       d="m 398.17,629.69 v 17.717 l -46.029,-26.575 15.343,-8.8583 z" />
    <path
       id="path3770-1"
       style="fill:#ffffff;stroke:#000000;stroke-width:1.5;stroke-linejoin:round"
       inkscape:connector-curvature="0"
       d="m 367.48,611.97 v -35.433 l -15.343,-8.8583 v 53.15 z" />
    <path
       id="path3772-4"
       style="fill:#ffffff;stroke:#000000;stroke-width:1.5;stroke-linejoin:round"
       inkscape:connector-curvature="0"
       d="m 367.48,576.54 30.686,17.717 30.686,-17.717 -30.686,-17.717 z" />
    <path
       id="path3774-4"
       style="fill:#ffffff;stroke:#000000;stroke-width:1.5;stroke-linejoin:round"
       inkscape:connector-curvature="0"
       d="m 398.17,629.69 30.686,-17.717 V 576.54 l -30.686,17.717 z" />
    <path
       id="path3776-8"
       style="fill:#ffffff;stroke:#000000;stroke-width:1.5;stroke-linejoin:round"
       inkscape:connector-curvature="0"
       d="m 398.17,629.69 v 17.717 l 46.029,-26.575 -15.343,-8.8583 z" />
    <path
       id="path3778-4"
       style="fill:#ffffff;stroke:#000000;stroke-width:1.5;stroke-linejoin:round"
       inkscape:connector-curvature="0"
       d="m 428.85,611.97 v -35.433 l 15.343,-8.8583 v 53.15 z" />
    <path
       id="path3780-9"
       style="fill:#ffffff;stroke:#000000;stroke-width:1.5;stroke-linejoin:round"
       inkscape:connector-curvature="0"
       d="m 428.85,576.54 -30.686,-17.717 v -17.717 l 46.029,26.575 z" />
    <path
       id="path3782-8"
       style="fill:#ffffff;stroke:#000000;stroke-width:1.5;stroke-linejoin:round"
       inkscape:connector-curvature="0"
       d="m 367.48,576.54 -15.343,-8.8583 46.029,-26.575 v 17.717 z" />
  </g>
  <g
     id="layer2"
     inkscape:label="Effects"
     inkscape:groupmode="layer"
     transform="translate(-351.387,-540.356)" />
  <metadata
     id="metadata66">
    <rdf:RDF>
      <cc:Work>
        <dc:format>image/svg+xml</dc:format>
        <dc:type
           rdf:resource="http://purl.org/dc/dcmitype/StillImage" />
        <cc:license
           rdf:resource="http://creativecommons.org/licenses/publicdomain/" />
        <dc:publisher>
          <cc:Agent
             rdf:about="http://openclipart.org/">
            <dc:title>Openclipart</dc:title>
          </cc:Agent>
        </dc:publisher>
        <dc:title>Hyper Cube, Red</dc:title>
        <dc:date>2011-06-05T18:09:14</dc:date>
        <dc:description>A red hyper cube.</dc:description>
        <dc:source>https://openclipart.org/detail/142603/hyper-cube-red-by-bnielsen</dc:source>
        <dc:creator>
          <cc:Agent>
            <dc:title>bnielsen</dc:title>
          </cc:Agent>
        </dc:creator>
        <dc:subject>
          <rdf:Bag>
            <rdf:li>3D</rdf:li>
            <rdf:li>3D Cube</rdf:li>
            <rdf:li>Cube</rdf:li>
            <rdf:li>Hyper Cube</rdf:li>
            <rdf:li>Red</rdf:li>
          </rdf:Bag>
        </dc:subject>
      </cc:Work>
      <cc:License
         rdf:about="http://creativecommons.org/licenses/publicdomain/">
        <cc:permits
           rdf:resource="http://creativecommons.org/ns#Reproduction" />
        <cc:permits
           rdf:resource="http://creativecommons.org/ns#Distribution" />
        <cc:permits
           rdf:resource="http://creativecommons.org/ns#DerivativeWorks" />
      </cc:License>
    </rdf:RDF>
  </metadata>
</svg>
