<?xml version="1.0" encoding="UTF-8" standalone="no"?>
<!-- Created with Inkscape (http://www.inkscape.org/) -->

<svg
   xmlns:dc="http://purl.org/dc/elements/1.1/"
   xmlns:cc="http://creativecommons.org/ns#"
   xmlns:rdf="http://www.w3.org/1999/02/22-rdf-syntax-ns#"
   xmlns:svg="http://www.w3.org/2000/svg"
   xmlns="http://www.w3.org/2000/svg"
   xmlns:sodipodi="http://sodipodi.sourceforge.net/DTD/sodipodi-0.dtd"
   xmlns:inkscape="http://www.inkscape.org/namespaces/inkscape"
   height="143.8893"
   id="svg1468"
   inkscape:version="0.48.2 r9819"
   sodipodi:docname="parse.svg"
   sodipodi:version="0.32"
   version="1.0"
   width="141.33751"
   x="0.00000000"
   y="0.00000000">
  <metadata
     id="metadata3">
    <rdf:RDF>
      <cc:Work
         rdf:about="">
        <dc:title>paper 4</dc:title>
        <dc:description>papers symbol</dc:description>
        <dc:subject>
          <rdf:Bag>
            <rdf:li>paper symbol</rdf:li>
          </rdf:Bag>
        </dc:subject>
        <dc:publisher>
          <cc:Agent
             rdf:about="http://www.openclipart.org/">
            <dc:title>Jarno Vasamaa</dc:title>
          </cc:Agent>
        </dc:publisher>
        <dc:creator>
          <cc:Agent>
            <dc:title>Jarno Vasamaa</dc:title>
          </cc:Agent>
        </dc:creator>
        <dc:rights>
          <cc:Agent>
            <dc:title>Jarno Vasamaa</dc:title>
          </cc:Agent>
        </dc:rights>
        <dc:date />
        <dc:format>image/svg+xml</dc:format>
        <dc:type
           rdf:resource="http://purl.org/dc/dcmitype/StillImage" />
        <cc:license
           rdf:resource="http://web.resource.org/cc/PublicDomain" />
        <dc:language>en</dc:language>
      </cc:Work>
      <cc:License
         rdf:about="http://web.resource.org/cc/PublicDomain">
        <cc:permits
           rdf:resource="http://web.resource.org/cc/Reproduction" />
        <cc:permits
           rdf:resource="http://web.resource.org/cc/Distribution" />
        <cc:permits
           rdf:resource="http://web.resource.org/cc/DerivativeWorks" />
      </cc:License>
    </rdf:RDF>
  </metadata>
  <sodipodi:namedview
     bordercolor="#666666"
     borderopacity="1.0"
     id="base"
     inkscape:current-layer="svg1468"
     inkscape:cx="27.180551"
     inkscape:cy="89.171615"
     inkscape:pageopacity="0.0"
     inkscape:pageshadow="2"
     inkscape:window-height="685"
     inkscape:window-width="1280"
     inkscape:window-x="0"
     inkscape:window-y="0"
     inkscape:zoom="1.8101934"
     pagecolor="#ffffff"
     showgrid="false"
     fit-margin-top="0"
     fit-margin-left="-0.4"
     fit-margin-right="0"
     fit-margin-bottom="0"
     inkscape:window-maximized="1" />
  <defs
     id="defs1470">
 <clipPath
   id="id0">
    <rect
   id="rect7"
   height="87.291199"
   width="86.190598"
   y="51.352699"
   x="40.020802" />

   </clipPath>

   </defs>
  <g
     id="g4076"
     transform="translate(30.33862,-0.00820024)">
    <g
       transform="translate(-36.615381,-19.080952)"
       id="layer1">
      <g
         transform="matrix(0.783061,0,0,0.783061,-447.4142,-120.6854)"
         id="g2298">
        <rect
           y="180.36218"
           x="648"
           width="110"
           style="fill:#ffffff;fill-opacity:1;stroke:#000000;stroke-width:3.75;stroke-linecap:round;stroke-linejoin:round;stroke-miterlimit:4;stroke-opacity:1;stroke-dasharray:none;stroke-dashoffset:0"
           id="rect2296"
           height="146" />
        <rect
           y="198.36218"
           x="634"
           width="110"
           style="fill:#ffffff;fill-opacity:1;stroke:#000000;stroke-width:3.75;stroke-linecap:round;stroke-linejoin:round;stroke-miterlimit:4;stroke-opacity:1;stroke-dasharray:none;stroke-dashoffset:0"
           id="rect2294"
           height="146" />
        <rect
           y="214.36218"
           x="620"
           width="110"
           style="fill:#ffffff;fill-opacity:1;stroke:#000000;stroke-width:3.75;stroke-linecap:round;stroke-linejoin:round;stroke-miterlimit:4;stroke-opacity:1;stroke-dasharray:none;stroke-dashoffset:0"
           id="rect2280"
           height="146" />
        <path
           inkscape:connector-curvature="0"
           style="fill:none;stroke:#000000;stroke-width:2.61349607;stroke-linecap:butt;stroke-linejoin:miter;stroke-miterlimit:4;stroke-opacity:1;stroke-dasharray:none"
           id="path2282"
           d="m 636.25047,258.36218 77.49906,0" />
        <path
           inkscape:connector-curvature="0"
           style="fill:none;stroke:#000000;stroke-width:2.61349607;stroke-linecap:butt;stroke-linejoin:miter;stroke-miterlimit:4;stroke-opacity:1;stroke-dasharray:none"
           id="path2284"
           d="m 636.25047,278.36218 77.49906,0" />
        <path
           inkscape:connector-curvature="0"
           style="fill:none;stroke:#000000;stroke-width:2.61349607;stroke-linecap:butt;stroke-linejoin:miter;stroke-miterlimit:4;stroke-opacity:1;stroke-dasharray:none"
           id="path2286"
           d="m 636.25047,298.36218 77.49906,0" />
        <path
           inkscape:connector-curvature="0"
           style="fill:none;stroke:#000000;stroke-width:2.61349607;stroke-linecap:butt;stroke-linejoin:miter;stroke-miterlimit:4;stroke-opacity:1;stroke-dasharray:none"
           id="path2288"
           d="m 636.25047,318.36218 77.49906,0" />
        <path
           inkscape:connector-curvature="0"
           style="fill:none;stroke:#000000;stroke-width:2.61349607;stroke-linecap:butt;stroke-linejoin:miter;stroke-miterlimit:4;stroke-opacity:1;stroke-dasharray:none"
           id="path2290"
           d="m 636.25047,338.36218 77.49906,0" />
        <path
           inkscape:connector-curvature="0"
           style="fill:none;stroke:#000000;stroke-width:2.61349607;stroke-linecap:butt;stroke-linejoin:miter;stroke-miterlimit:4;stroke-opacity:1;stroke-dasharray:none"
           id="path2292"
           d="m 636.25047,238.36218 77.49906,0" />
      </g>
    </g>
    <g
       id="g4066">
      <g
         style="fill-rule:evenodd"
         id="g3085"
         transform="matrix(-1.5633514,-0.16559694,-0.16559694,1.5633514,256.21094,196.3172)">
        <g
           transform="matrix(-0.61008635,0.18002464,0.18002464,0.61008635,193.77435,-122.90189)"
           id="layer1-4">
          <g
             transform="matrix(0.752214,0,0,0.752214,-246.9586,-388.8009)"
             id="g2451">
            <rect
               y="400.87659"
               x="656.40765"
               width="20.000011"
               transform="matrix(0.91119,0.411987,-0.411987,0.91119,0,0)"
               style="fill:#ffffff;fill-opacity:1;stroke:#000000;stroke-width:4.50098467;stroke-linecap:round;stroke-linejoin:round;stroke-miterlimit:4;stroke-opacity:1;stroke-dasharray:none;stroke-dashoffset:0"
               ry="5.0000029"
               rx="5.0000029"
               id="rect2453"
               height="78.000046" />
            <path
               inkscape:connector-curvature="0"
               style="fill:#ffffff;fill-opacity:1;stroke:#000000;stroke-width:4.50098228;stroke-linecap:round;stroke-linejoin:round;stroke-miterlimit:4;stroke-opacity:1;stroke-dasharray:none;stroke-dashoffset:0"
               id="path2455"
               d="m 502,603.36218 a 41,41 0 1 1 -82,0 41,41 0 1 1 82,0 z" />
            <path
               inkscape:connector-curvature="0"
               style="fill:#000000;fill-opacity:1;fill-rule:evenodd;stroke:none"
               id="path2457"
               d="m 431.35135,594.14596 c 0,0 2.65946,-14.65946 16.65946,-20.65946 14,-6 30.20541,1.10271 30.20541,1.10271 0,0 -16.87568,2 -26.87568,6 -10,4 -19.98919,11.55675 -19.98919,13.55675 z" />
          </g>
        </g>
      </g>
      <rect
         style="fill:#000000;fill-opacity:1;stroke:none"
         id="rect3990"
         width="59.360233"
         height="6.2681665"
         x="11.173697"
         y="78.02771"
         rx="6.4541545"
         ry="0" />
      <rect
         style="fill:#000000;fill-opacity:1;stroke:none"
         id="rect4060"
         width="59.683868"
         height="6.2681684"
         x="10.356106"
         y="60.94632"
         rx="0" />
    </g>
  </g>
</svg>
